<?xml version="1.0" encoding="utf-8"?>
<!-- Generator: Adobe Illustrator 22.1.0, SVG Export Plug-In . SVG Version: 6.00 Build 0)  -->
<svg version="1.1" id="Logo_x5F_transparent_x5F_vektor_xA0_Bild_1_"
	 xmlns="http://www.w3.org/2000/svg" xmlns:xlink="http://www.w3.org/1999/xlink" x="0px" y="0px" viewBox="0 0 25 25"
	 style="enable-background:new 0 0 25 25;" xml:space="preserve">
<style type="text/css">
	.st0{fill:#FFFFFF;}
</style>
<g>
	<path class="st0" d="M16.2,16c0,0.1-0.1,0.2-0.2,0.2H1.5c-0.8,0-1.5,0.7-1.5,1.5l0,5.8C0,24.3,0.7,25,1.5,25h21.9
		c0.8,0,1.5-0.7,1.5-1.5V1.5C25,0.7,24.3,0,23.5,0h-5.8c-0.8,0-1.5,0.7-1.5,1.5V16z"/>
</g>
</svg>
